-- Merging decision tree log ---
manifest
ADDED from /Users/balwindersingh/Desktop/React_Native_code/rn-course/android/app/src/main/AndroidManifest.xml:1:1-31:12
INJECTED from /Users/balwindersingh/Desktop/React_Native_code/rn-course/android/app/src/main/AndroidManifest.xml:1:1-31:12
INJECTED from /Users/balwindersingh/Desktop/React_Native_code/rn-course/android/app/src/main/AndroidManifest.xml:1:1-31:12
INJECTED from /Users/balwindersingh/Desktop/React_Native_code/rn-course/android/app/src/main/AndroidManifest.xml:1:1-31:12
MERGED from [:react-native-vector-icons] /Users/balwindersingh/Desktop/React_Native_code/rn-course/node_modules/react-native-vector-icons/android/build/intermediates/manifests/full/debug/AndroidManifest.xml:2:1-11:12
MERGED from [:react-native-navigation] /Users/balwindersingh/Desktop/React_Native_code/rn-course/node_modules/react-native-navigation/android/app/build/intermediates/manifests/full/debug/AndroidManifest.xml:2:1-20:12
MERGED from [:react-native-image-picker] /Users/balwindersingh/Desktop/React_Native_code/rn-course/node_modules/react-native-image-picker/android/build/intermediates/manifests/full/debug/AndroidManifest.xml:2:1-23:12
MERGED from [com.facebook.react:react-native:0.55.4] /Users/balwindersingh/.gradle/caches/transforms-1/files-1.1/react-native-0.55.4.aar/523d46b92ce78516a23fc37284fa4dfb/AndroidManifest.xml:2:1-15:12
MERGED from [com.balysv.materialmenu:material-menu-toolbar:1.5.4] /Users/balwindersingh/.gradle/caches/transforms-1/files-1.1/material-menu-toolbar-1.5.4.aar/e01dcaffa6584532384161a220444455/AndroidManifest.xml:2:1-14:12
MERGED from [com.aurelhubert:ahbottomnavigation:2.0.6] /Users/balwindersingh/.gradle/caches/transforms-1/files-1.1/ahbottomnavigation-2.0.6.aar/177658f54693832eaa5625e0aed93748/AndroidManifest.xml:2:1-13:12
MERGED from [com.android.support:design:25.3.1] /Users/balwindersingh/.gradle/caches/transforms-1/files-1.1/design-25.3.1.aar/96bcce4c085bb9936858261c5945bebf/AndroidManifest.xml:17:1-31:12
MERGED from [com.android.support:appcompat-v7:25.3.1] /Users/balwindersingh/.gradle/caches/transforms-1/files-1.1/appcompat-v7-25.3.1.aar/94851685d741ed7b45930e357cf9b9d7/AndroidManifest.xml:17:1-31:12
MERGED from [:react-native-maps] /Users/balwindersingh/Desktop/React_Native_code/rn-course/node_modules/react-native-maps/lib/android/build/intermediates/manifests/full/debug/AndroidManifest.xml:2:1-12:12
MERGED from [com.google.android.gms:play-services-maps:10.0.1] /Users/balwindersingh/.gradle/caches/transforms-1/files-1.1/play-services-maps-10.0.1.aar/e06f5f072991c02653321e2bcd9a06bd/AndroidManifest.xml:16:1-25:12
MERGED from [com.google.android.gms:play-services-base:10.0.1] /Users/balwindersingh/.gradle/caches/transforms-1/files-1.1/play-services-base-10.0.1.aar/a96078589639d53a95db88da53e515d8/AndroidManifest.xml:16:1-21:12
MERGED from [com.facebook.fbui.textlayoutbuilder:textlayoutbuilder:1.0.0] /Users/balwindersingh/.gradle/caches/transforms-1/files-1.1/textlayoutbuilder-1.0.0.aar/01e1975573ebdddf04baa41f38a81880/AndroidManifest.xml:10:1-18:12
MERGED from [com.facebook.fresco:fresco:1.3.0] /Users/balwindersingh/.gradle/caches/transforms-1/files-1.1/fresco-1.3.0.aar/1a1518ed5bb997f08374882a23286813/AndroidManifest.xml:2:1-9:12
MERGED from [com.facebook.fresco:imagepipeline-okhttp3:1.3.0] /Users/balwindersingh/.gradle/caches/transforms-1/files-1.1/imagepipeline-okhttp3-1.3.0.aar/9840f6465f4e6b388f3cbf988b45a7c1/AndroidManifest.xml:2:1-9:12
MERGED from [com.facebook.soloader:soloader:0.1.0] /Users/balwindersingh/.gradle/caches/transforms-1/files-1.1/soloader-0.1.0.aar/aaeaa138c16790cc1104719c3f0b4a78/AndroidManifest.xml:1:1-4:12
MERGED from [org.webkit:android-jsc:r174650] /Users/balwindersingh/.gradle/caches/transforms-1/files-1.1/android-jsc-r174650.aar/737fa8ce8b9e9d95c9d7db7113e0e960/AndroidManifest.xml:1:1-3:12
MERGED from [com.google.android.gms:play-services-tasks:10.0.1] /Users/balwindersingh/.gradle/caches/transforms-1/files-1.1/play-services-tasks-10.0.1.aar/62aac8a9ce8948d6e093c01f3adc018e/AndroidManifest.xml:2:1-5:12
MERGED from [com.google.android.gms:play-services-basement:10.0.1] /Users/balwindersingh/.gradle/caches/transforms-1/files-1.1/play-services-basement-10.0.1.aar/3cd082ad5f86f64fdf89311ed5933c59/AndroidManifest.xml:16:1-23:12
MERGED from [com.android.support:transition:25.3.1] /Users/balwindersingh/.gradle/caches/transforms-1/files-1.1/transition-25.3.1.aar/ac82d289ed7a4ed2257434129e8cd0ef/AndroidManifest.xml:17:1-28:12
MERGED from [com.android.support:support-v4:25.3.1] /Users/balwindersingh/.gradle/caches/transforms-1/files-1.1/support-v4-25.3.1.aar/1dd75d1bc82b8ecc67df076594c16ea6/AndroidManifest.xml:17:1-31:12
MERGED from [com.google.maps.android:android-maps-utils:0.5] /Users/balwindersingh/.gradle/caches/transforms-1/files-1.1/android-maps-utils-0.5.aar/7caa1b57abe22018540d7ea7492c0560/AndroidManifest.xml:2:1-13:12
MERGED from [com.facebook.fresco:drawee:1.3.0] /Users/balwindersingh/.gradle/caches/transforms-1/files-1.1/drawee-1.3.0.aar/81946c5aea6708fd80b66053579e8454/AndroidManifest.xml:2:1-9:12
MERGED from [com.facebook.fresco:imagepipeline:1.3.0] /Users/balwindersingh/.gradle/caches/transforms-1/files-1.1/imagepipeline-1.3.0.aar/1c5a9f6d4f7a2363bfc5e5131ca700eb/AndroidManifest.xml:2:1-9:12
MERGED from [com.facebook.fresco:imagepipeline-base:1.3.0] /Users/balwindersingh/.gradle/caches/transforms-1/files-1.1/imagepipeline-base-1.3.0.aar/eac575755b6dafba9bd48359478ee21b/AndroidManifest.xml:2:1-9:12
MERGED from [com.facebook.fresco:fbcore:1.3.0] /Users/balwindersingh/.gradle/caches/transforms-1/files-1.1/fbcore-1.3.0.aar/1b33b173fed59ef5b15a908a01a6da87/AndroidManifest.xml:2:1-9:12
MERGED from [com.android.support:recyclerview-v7:25.3.1] /Users/balwindersingh/.gradle/caches/transforms-1/files-1.1/recyclerview-v7-25.3.1.aar/3dba1df03cb71944add03461ab419260/AndroidManifest.xml:17:1-26:12
MERGED from [com.balysv.materialmenu:material-menu:1.5.4] /Users/balwindersingh/.gradle/caches/transforms-1/files-1.1/material-menu-1.5.4.aar/33697b8eecdcf90ea44127b507d32956/AndroidManifest.xml:2:1-14:12
MERGED from [com.android.support:animated-vector-drawable:25.3.1] /Users/balwindersingh/.gradle/caches/transforms-1/files-1.1/animated-vector-drawable-25.3.1.aar/c0e41d9f85597d33c4995695487aa34a/AndroidManifest.xml:17:1-28:12
MERGED from [com.android.support:support-vector-drawable:25.3.1] /Users/balwindersingh/.gradle/caches/transforms-1/files-1.1/support-vector-drawable-25.3.1.aar/343ef8cb76a88f5a5b8810adc89086c6/AndroidManifest.xml:17:1-28:12
MERGED from [com.android.support:support-fragment:25.3.1] /Users/balwindersingh/.gradle/caches/transforms-1/files-1.1/support-fragment-25.3.1.aar/c7839729b3994a76bac3c4fe63875fe3/AndroidManifest.xml:17:1-31:12
MERGED from [com.android.support:support-media-compat:25.3.1] /Users/balwindersingh/.gradle/caches/transforms-1/files-1.1/support-media-compat-25.3.1.aar/37380d5f1d000537e6adccbd00e23b6b/AndroidManifest.xml:17:1-31:12
MERGED from [com.android.support:support-core-utils:25.3.1] /Users/balwindersingh/.gradle/caches/transforms-1/files-1.1/support-core-utils-25.3.1.aar/2b68842263cae73fc7bcd9c33fad087c/AndroidManifest.xml:17:1-31:12
MERGED from [com.android.support:support-core-ui:25.3.1] /Users/balwindersingh/.gradle/caches/transforms-1/files-1.1/support-core-ui-25.3.1.aar/41ba186db3ce090ee3e45bbe93251aad/AndroidManifest.xml:17:1-31:12
MERGED from [com.android.support:support-compat:25.3.1] /Users/balwindersingh/.gradle/caches/transforms-1/files-1.1/support-compat-25.3.1.aar/928cffda348b9ade96913757e70caeaa/AndroidManifest.xml:17:1-31:12
INJECTED from /Users/balwindersingh/Desktop/React_Native_code/rn-course/android/app/src/main/AndroidManifest.xml:1:1-31:12
INJECTED from /Users/balwindersingh/Desktop/React_Native_code/rn-course/android/app/src/main/AndroidManifest.xml:1:1-31:12
INJECTED from /Users/balwindersingh/Desktop/React_Native_code/rn-course/android/app/src/main/AndroidManifest.xml:1:1-31:12
	package
		ADDED from /Users/balwindersingh/Desktop/React_Native_code/rn-course/android/app/src/main/AndroidManifest.xml:2:5-27
		INJECTED from /Users/balwindersingh/Desktop/React_Native_code/rn-course/android/app/src/main/AndroidManifest.xml
		INJECTED from /Users/balwindersingh/Desktop/React_Native_code/rn-course/android/app/src/main/AndroidManifest.xml
	android:versionName
		INJECTED from /Users/balwindersingh/Desktop/React_Native_code/rn-course/android/app/src/main/AndroidManifest.xml
		ADDED from /Users/balwindersingh/Desktop/React_Native_code/rn-course/android/app/src/main/AndroidManifest.xml:1:1-31:12
		INJECTED from /Users/balwindersingh/Desktop/React_Native_code/rn-course/android/app/src/main/AndroidManifest.xml
	android:versionCode
		INJECTED from /Users/balwindersingh/Desktop/React_Native_code/rn-course/android/app/src/main/AndroidManifest.xml
		ADDED from /Users/balwindersingh/Desktop/React_Native_code/rn-course/android/app/src/main/AndroidManifest.xml:1:1-31:12
		INJECTED from /Users/balwindersingh/Desktop/React_Native_code/rn-course/android/app/src/main/AndroidManifest.xml
	xmlns:android
		ADDED from /Users/balwindersingh/Desktop/React_Native_code/rn-course/android/app/src/main/AndroidManifest.xml:1:11-69
uses-permission#android.permission.INTERNET
ADDED from /Users/balwindersingh/Desktop/React_Native_code/rn-course/android/app/src/main/AndroidManifest.xml:4:5-67
MERGED from [:react-native-maps] /Users/balwindersingh/Desktop/React_Native_code/rn-course/node_modules/react-native-maps/lib/android/build/intermediates/manifests/full/debug/AndroidManifest.xml:9:5-67
MERGED from [:react-native-maps] /Users/balwindersingh/Desktop/React_Native_code/rn-course/node_modules/react-native-maps/lib/android/build/intermediates/manifests/full/debug/AndroidManifest.xml:9:5-67
MERGED from [com.google.android.gms:play-services-maps:10.0.1] /Users/balwindersingh/.gradle/caches/transforms-1/files-1.1/play-services-maps-10.0.1.aar/e06f5f072991c02653321e2bcd9a06bd/AndroidManifest.xml:20:5-66
MERGED from [com.google.android.gms:play-services-maps:10.0.1] /Users/balwindersingh/.gradle/caches/transforms-1/files-1.1/play-services-maps-10.0.1.aar/e06f5f072991c02653321e2bcd9a06bd/AndroidManifest.xml:20:5-66
	android:name
		ADDED from /Users/balwindersingh/Desktop/React_Native_code/rn-course/android/app/src/main/AndroidManifest.xml:4:22-64
uses-permission#android.permission.SYSTEM_ALERT_WINDOW
ADDED from /Users/balwindersingh/Desktop/React_Native_code/rn-course/android/app/src/main/AndroidManifest.xml:5:5-77
MERGED from [com.facebook.react:react-native:0.55.4] /Users/balwindersingh/.gradle/caches/transforms-1/files-1.1/react-native-0.55.4.aar/523d46b92ce78516a23fc37284fa4dfb/AndroidManifest.xml:11:5-78
MERGED from [com.facebook.react:react-native:0.55.4] /Users/balwindersingh/.gradle/caches/transforms-1/files-1.1/react-native-0.55.4.aar/523d46b92ce78516a23fc37284fa4dfb/AndroidManifest.xml:11:5-78
	android:name
		ADDED from /Users/balwindersingh/Desktop/React_Native_code/rn-course/android/app/src/main/AndroidManifest.xml:5:22-75
uses-permission#android.permission.ACCESS_FINE_LOCATION
ADDED from /Users/balwindersingh/Desktop/React_Native_code/rn-course/android/app/src/main/AndroidManifest.xml:6:5-78
	android:name
		ADDED from /Users/balwindersingh/Desktop/React_Native_code/rn-course/android/app/src/main/AndroidManifest.xml:6:22-76
uses-permission#android.permission.CAMERA
ADDED from /Users/balwindersingh/Desktop/React_Native_code/rn-course/android/app/src/main/AndroidManifest.xml:7:5-65
	android:name
		ADDED from /Users/balwindersingh/Desktop/React_Native_code/rn-course/android/app/src/main/AndroidManifest.xml:7:22-62
uses-permission#android.permission.WRITE_EXTERNAL_STORAGE
ADDED from /Users/balwindersingh/Desktop/React_Native_code/rn-course/android/app/src/main/AndroidManifest.xml:8:5-80
	android:name
		ADDED from /Users/balwindersingh/Desktop/React_Native_code/rn-course/android/app/src/main/AndroidManifest.xml:8:22-78
application
ADDED from /Users/balwindersingh/Desktop/React_Native_code/rn-course/android/app/src/main/AndroidManifest.xml:9:5-29:19
MERGED from [:react-native-navigation] /Users/balwindersingh/Desktop/React_Native_code/rn-course/node_modules/react-native-navigation/android/app/build/intermediates/manifests/full/debug/AndroidManifest.xml:11:5-18:19
MERGED from [:react-native-navigation] /Users/balwindersingh/Desktop/React_Native_code/rn-course/node_modules/react-native-navigation/android/app/build/intermediates/manifests/full/debug/AndroidManifest.xml:11:5-18:19
MERGED from [:react-native-image-picker] /Users/balwindersingh/Desktop/React_Native_code/rn-course/node_modules/react-native-image-picker/android/build/intermediates/manifests/full/debug/AndroidManifest.xml:11:5-21:19
MERGED from [:react-native-image-picker] /Users/balwindersingh/Desktop/React_Native_code/rn-course/node_modules/react-native-image-picker/android/build/intermediates/manifests/full/debug/AndroidManifest.xml:11:5-21:19
MERGED from [com.facebook.react:react-native:0.55.4] /Users/balwindersingh/.gradle/caches/transforms-1/files-1.1/react-native-0.55.4.aar/523d46b92ce78516a23fc37284fa4dfb/AndroidManifest.xml:13:5-20
MERGED from [com.facebook.react:react-native:0.55.4] /Users/balwindersingh/.gradle/caches/transforms-1/files-1.1/react-native-0.55.4.aar/523d46b92ce78516a23fc37284fa4dfb/AndroidManifest.xml:13:5-20
MERGED from [com.balysv.materialmenu:material-menu-toolbar:1.5.4] /Users/balwindersingh/.gradle/caches/transforms-1/files-1.1/material-menu-toolbar-1.5.4.aar/e01dcaffa6584532384161a220444455/AndroidManifest.xml:12:5-20
MERGED from [com.balysv.materialmenu:material-menu-toolbar:1.5.4] /Users/balwindersingh/.gradle/caches/transforms-1/files-1.1/material-menu-toolbar-1.5.4.aar/e01dcaffa6584532384161a220444455/AndroidManifest.xml:12:5-20
MERGED from [com.aurelhubert:ahbottomnavigation:2.0.6] /Users/balwindersingh/.gradle/caches/transforms-1/files-1.1/ahbottomnavigation-2.0.6.aar/177658f54693832eaa5625e0aed93748/AndroidManifest.xml:11:5-20
MERGED from [com.aurelhubert:ahbottomnavigation:2.0.6] /Users/balwindersingh/.gradle/caches/transforms-1/files-1.1/ahbottomnavigation-2.0.6.aar/177658f54693832eaa5625e0aed93748/AndroidManifest.xml:11:5-20
MERGED from [com.android.support:design:25.3.1] /Users/balwindersingh/.gradle/caches/transforms-1/files-1.1/design-25.3.1.aar/96bcce4c085bb9936858261c5945bebf/AndroidManifest.xml:29:5-20
MERGED from [com.android.support:design:25.3.1] /Users/balwindersingh/.gradle/caches/transforms-1/files-1.1/design-25.3.1.aar/96bcce4c085bb9936858261c5945bebf/AndroidManifest.xml:29:5-20
MERGED from [com.android.support:appcompat-v7:25.3.1] /Users/balwindersingh/.gradle/caches/transforms-1/files-1.1/appcompat-v7-25.3.1.aar/94851685d741ed7b45930e357cf9b9d7/AndroidManifest.xml:29:5-20
MERGED from [com.android.support:appcompat-v7:25.3.1] /Users/balwindersingh/.gradle/caches/transforms-1/files-1.1/appcompat-v7-25.3.1.aar/94851685d741ed7b45930e357cf9b9d7/AndroidManifest.xml:29:5-20
MERGED from [com.google.android.gms:play-services-maps:10.0.1] /Users/balwindersingh/.gradle/caches/transforms-1/files-1.1/play-services-maps-10.0.1.aar/e06f5f072991c02653321e2bcd9a06bd/AndroidManifest.xml:24:5-19
MERGED from [com.google.android.gms:play-services-maps:10.0.1] /Users/balwindersingh/.gradle/caches/transforms-1/files-1.1/play-services-maps-10.0.1.aar/e06f5f072991c02653321e2bcd9a06bd/AndroidManifest.xml:24:5-19
MERGED from [com.google.android.gms:play-services-base:10.0.1] /Users/balwindersingh/.gradle/caches/transforms-1/files-1.1/play-services-base-10.0.1.aar/a96078589639d53a95db88da53e515d8/AndroidManifest.xml:18:5-20:19
MERGED from [com.google.android.gms:play-services-base:10.0.1] /Users/balwindersingh/.gradle/caches/transforms-1/files-1.1/play-services-base-10.0.1.aar/a96078589639d53a95db88da53e515d8/AndroidManifest.xml:18:5-20:19
MERGED from [com.facebook.soloader:soloader:0.1.0] /Users/balwindersingh/.gradle/caches/transforms-1/files-1.1/soloader-0.1.0.aar/aaeaa138c16790cc1104719c3f0b4a78/AndroidManifest.xml:3:3-17
MERGED from [com.facebook.soloader:soloader:0.1.0] /Users/balwindersingh/.gradle/caches/transforms-1/files-1.1/soloader-0.1.0.aar/aaeaa138c16790cc1104719c3f0b4a78/AndroidManifest.xml:3:3-17
MERGED from [org.webkit:android-jsc:r174650] /Users/balwindersingh/.gradle/caches/transforms-1/files-1.1/android-jsc-r174650.aar/737fa8ce8b9e9d95c9d7db7113e0e960/AndroidManifest.xml:2:3-17
MERGED from [org.webkit:android-jsc:r174650] /Users/balwindersingh/.gradle/caches/transforms-1/files-1.1/android-jsc-r174650.aar/737fa8ce8b9e9d95c9d7db7113e0e960/AndroidManifest.xml:2:3-17
MERGED from [com.google.android.gms:play-services-tasks:10.0.1] /Users/balwindersingh/.gradle/caches/transforms-1/files-1.1/play-services-tasks-10.0.1.aar/62aac8a9ce8948d6e093c01f3adc018e/AndroidManifest.xml:4:5-19
MERGED from [com.google.android.gms:play-services-tasks:10.0.1] /Users/balwindersingh/.gradle/caches/transforms-1/files-1.1/play-services-tasks-10.0.1.aar/62aac8a9ce8948d6e093c01f3adc018e/AndroidManifest.xml:4:5-19
MERGED from [com.google.android.gms:play-services-basement:10.0.1] /Users/balwindersingh/.gradle/caches/transforms-1/files-1.1/play-services-basement-10.0.1.aar/3cd082ad5f86f64fdf89311ed5933c59/AndroidManifest.xml:19:5-21:19
MERGED from [com.google.android.gms:play-services-basement:10.0.1] /Users/balwindersingh/.gradle/caches/transforms-1/files-1.1/play-services-basement-10.0.1.aar/3cd082ad5f86f64fdf89311ed5933c59/AndroidManifest.xml:19:5-21:19
MERGED from [com.android.support:transition:25.3.1] /Users/balwindersingh/.gradle/caches/transforms-1/files-1.1/transition-25.3.1.aar/ac82d289ed7a4ed2257434129e8cd0ef/AndroidManifest.xml:26:5-20
MERGED from [com.android.support:transition:25.3.1] /Users/balwindersingh/.gradle/caches/transforms-1/files-1.1/transition-25.3.1.aar/ac82d289ed7a4ed2257434129e8cd0ef/AndroidManifest.xml:26:5-20
MERGED from [com.android.support:support-v4:25.3.1] /Users/balwindersingh/.gradle/caches/transforms-1/files-1.1/support-v4-25.3.1.aar/1dd75d1bc82b8ecc67df076594c16ea6/AndroidManifest.xml:29:5-20
MERGED from [com.android.support:support-v4:25.3.1] /Users/balwindersingh/.gradle/caches/transforms-1/files-1.1/support-v4-25.3.1.aar/1dd75d1bc82b8ecc67df076594c16ea6/AndroidManifest.xml:29:5-20
MERGED from [com.google.maps.android:android-maps-utils:0.5] /Users/balwindersingh/.gradle/caches/transforms-1/files-1.1/android-maps-utils-0.5.aar/7caa1b57abe22018540d7ea7492c0560/AndroidManifest.xml:7:5-11:19
MERGED from [com.google.maps.android:android-maps-utils:0.5] /Users/balwindersingh/.gradle/caches/transforms-1/files-1.1/android-maps-utils-0.5.aar/7caa1b57abe22018540d7ea7492c0560/AndroidManifest.xml:7:5-11:19
MERGED from [com.balysv.materialmenu:material-menu:1.5.4] /Users/balwindersingh/.gradle/caches/transforms-1/files-1.1/material-menu-1.5.4.aar/33697b8eecdcf90ea44127b507d32956/AndroidManifest.xml:12:5-20
MERGED from [com.balysv.materialmenu:material-menu:1.5.4] /Users/balwindersingh/.gradle/caches/transforms-1/files-1.1/material-menu-1.5.4.aar/33697b8eecdcf90ea44127b507d32956/AndroidManifest.xml:12:5-20
MERGED from [com.android.support:animated-vector-drawable:25.3.1] /Users/balwindersingh/.gradle/caches/transforms-1/files-1.1/animated-vector-drawable-25.3.1.aar/c0e41d9f85597d33c4995695487aa34a/AndroidManifest.xml:26:5-20
MERGED from [com.android.support:animated-vector-drawable:25.3.1] /Users/balwindersingh/.gradle/caches/transforms-1/files-1.1/animated-vector-drawable-25.3.1.aar/c0e41d9f85597d33c4995695487aa34a/AndroidManifest.xml:26:5-20
MERGED from [com.android.support:support-vector-drawable:25.3.1] /Users/balwindersingh/.gradle/caches/transforms-1/files-1.1/support-vector-drawable-25.3.1.aar/343ef8cb76a88f5a5b8810adc89086c6/AndroidManifest.xml:26:5-20
MERGED from [com.android.support:support-vector-drawable:25.3.1] /Users/balwindersingh/.gradle/caches/transforms-1/files-1.1/support-vector-drawable-25.3.1.aar/343ef8cb76a88f5a5b8810adc89086c6/AndroidManifest.xml:26:5-20
MERGED from [com.android.support:support-fragment:25.3.1] /Users/balwindersingh/.gradle/caches/transforms-1/files-1.1/support-fragment-25.3.1.aar/c7839729b3994a76bac3c4fe63875fe3/AndroidManifest.xml:29:5-20
MERGED from [com.android.support:support-fragment:25.3.1] /Users/balwindersingh/.gradle/caches/transforms-1/files-1.1/support-fragment-25.3.1.aar/c7839729b3994a76bac3c4fe63875fe3/AndroidManifest.xml:29:5-20
MERGED from [com.android.support:support-media-compat:25.3.1] /Users/balwindersingh/.gradle/caches/transforms-1/files-1.1/support-media-compat-25.3.1.aar/37380d5f1d000537e6adccbd00e23b6b/AndroidManifest.xml:29:5-20
MERGED from [com.android.support:support-media-compat:25.3.1] /Users/balwindersingh/.gradle/caches/transforms-1/files-1.1/support-media-compat-25.3.1.aar/37380d5f1d000537e6adccbd00e23b6b/AndroidManifest.xml:29:5-20
MERGED from [com.android.support:support-core-utils:25.3.1] /Users/balwindersingh/.gradle/caches/transforms-1/files-1.1/support-core-utils-25.3.1.aar/2b68842263cae73fc7bcd9c33fad087c/AndroidManifest.xml:29:5-20
MERGED from [com.android.support:support-core-utils:25.3.1] /Users/balwindersingh/.gradle/caches/transforms-1/files-1.1/support-core-utils-25.3.1.aar/2b68842263cae73fc7bcd9c33fad087c/AndroidManifest.xml:29:5-20
MERGED from [com.android.support:support-core-ui:25.3.1] /Users/balwindersingh/.gradle/caches/transforms-1/files-1.1/support-core-ui-25.3.1.aar/41ba186db3ce090ee3e45bbe93251aad/AndroidManifest.xml:29:5-20
MERGED from [com.android.support:support-core-ui:25.3.1] /Users/balwindersingh/.gradle/caches/transforms-1/files-1.1/support-core-ui-25.3.1.aar/41ba186db3ce090ee3e45bbe93251aad/AndroidManifest.xml:29:5-20
MERGED from [com.android.support:support-compat:25.3.1] /Users/balwindersingh/.gradle/caches/transforms-1/files-1.1/support-compat-25.3.1.aar/928cffda348b9ade96913757e70caeaa/AndroidManifest.xml:29:5-20
MERGED from [com.android.support:support-compat:25.3.1] /Users/balwindersingh/.gradle/caches/transforms-1/files-1.1/support-compat-25.3.1.aar/928cffda348b9ade96913757e70caeaa/AndroidManifest.xml:29:5-20
	android:label
		ADDED from /Users/balwindersingh/Desktop/React_Native_code/rn-course/android/app/src/main/AndroidManifest.xml:11:7-39
	android:icon
		ADDED from /Users/balwindersingh/Desktop/React_Native_code/rn-course/android/app/src/main/AndroidManifest.xml:12:7-41
	android:allowBackup
		ADDED from /Users/balwindersingh/Desktop/React_Native_code/rn-course/android/app/src/main/AndroidManifest.xml:13:7-34
	android:theme
		ADDED from /Users/balwindersingh/Desktop/React_Native_code/rn-course/android/app/src/main/AndroidManifest.xml:14:7-38
	android:name
		ADDED from /Users/balwindersingh/Desktop/React_Native_code/rn-course/android/app/src/main/AndroidManifest.xml:10:7-38
activity#com.rncourse.MainActivity
ADDED from /Users/balwindersingh/Desktop/React_Native_code/rn-course/android/app/src/main/AndroidManifest.xml:15:7-24:18
	android:label
		ADDED from /Users/balwindersingh/Desktop/React_Native_code/rn-course/android/app/src/main/AndroidManifest.xml:17:9-41
	android:windowSoftInputMode
		ADDED from /Users/balwindersingh/Desktop/React_Native_code/rn-course/android/app/src/main/AndroidManifest.xml:19:9-51
	android:configChanges
		ADDED from /Users/balwindersingh/Desktop/React_Native_code/rn-course/android/app/src/main/AndroidManifest.xml:18:9-79
	android:name
		ADDED from /Users/balwindersingh/Desktop/React_Native_code/rn-course/android/app/src/main/AndroidManifest.xml:16:9-37
intent-filter#action:name:android.intent.action.MAIN+category:name:android.intent.category.LAUNCHER
ADDED from /Users/balwindersingh/Desktop/React_Native_code/rn-course/android/app/src/main/AndroidManifest.xml:20:9-23:25
action#android.intent.action.MAIN
ADDED from /Users/balwindersingh/Desktop/React_Native_code/rn-course/android/app/src/main/AndroidManifest.xml:21:13-65
	android:name
		ADDED from /Users/balwindersingh/Desktop/React_Native_code/rn-course/android/app/src/main/AndroidManifest.xml:21:21-62
category#android.intent.category.LAUNCHER
ADDED from /Users/balwindersingh/Desktop/React_Native_code/rn-course/android/app/src/main/AndroidManifest.xml:22:13-73
	android:name
		ADDED from /Users/balwindersingh/Desktop/React_Native_code/rn-course/android/app/src/main/AndroidManifest.xml:22:23-70
activity#com.facebook.react.devsupport.DevSettingsActivity
ADDED from /Users/balwindersingh/Desktop/React_Native_code/rn-course/android/app/src/main/AndroidManifest.xml:25:7-84
MERGED from [:react-native-navigation] /Users/balwindersingh/Desktop/React_Native_code/rn-course/node_modules/react-native-navigation/android/app/build/intermediates/manifests/full/debug/AndroidManifest.xml:15:9-17:40
MERGED from [:react-native-navigation] /Users/balwindersingh/Desktop/React_Native_code/rn-course/node_modules/react-native-navigation/android/app/build/intermediates/manifests/full/debug/AndroidManifest.xml:15:9-17:40
	android:exported
		ADDED from [:react-native-navigation] /Users/balwindersingh/Desktop/React_Native_code/rn-course/node_modules/react-native-navigation/android/app/build/intermediates/manifests/full/debug/AndroidManifest.xml:17:13-37
	android:name
		ADDED from /Users/balwindersingh/Desktop/React_Native_code/rn-course/android/app/src/main/AndroidManifest.xml:25:17-81
meta-data#com.google.android.geo.API_KEY
ADDED from /Users/balwindersingh/Desktop/React_Native_code/rn-course/android/app/src/main/AndroidManifest.xml:26:8-28:63
	android:value
		ADDED from /Users/balwindersingh/Desktop/React_Native_code/rn-course/android/app/src/main/AndroidManifest.xml:28:6-61
	android:name
		ADDED from /Users/balwindersingh/Desktop/React_Native_code/rn-course/android/app/src/main/AndroidManifest.xml:27:6-51
uses-sdk
INJECTED from /Users/balwindersingh/Desktop/React_Native_code/rn-course/android/app/src/main/AndroidManifest.xml reason: use-sdk injection requested
INJECTED from /Users/balwindersingh/Desktop/React_Native_code/rn-course/android/app/src/main/AndroidManifest.xml
INJECTED from /Users/balwindersingh/Desktop/React_Native_code/rn-course/android/app/src/main/AndroidManifest.xml
MERGED from [:react-native-vector-icons] /Users/balwindersingh/Desktop/React_Native_code/rn-course/node_modules/react-native-vector-icons/android/build/intermediates/manifests/full/debug/AndroidManifest.xml:7:5-9:41
MERGED from [:react-native-vector-icons] /Users/balwindersingh/Desktop/React_Native_code/rn-course/node_modules/react-native-vector-icons/android/build/intermediates/manifests/full/debug/AndroidManifest.xml:7:5-9:41
MERGED from [:react-native-navigation] /Users/balwindersingh/Desktop/React_Native_code/rn-course/node_modules/react-native-navigation/android/app/build/intermediates/manifests/full/debug/AndroidManifest.xml:7:5-9:41
MERGED from [:react-native-navigation] /Users/balwindersingh/Desktop/React_Native_code/rn-course/node_modules/react-native-navigation/android/app/build/intermediates/manifests/full/debug/AndroidManifest.xml:7:5-9:41
MERGED from [:react-native-image-picker] /Users/balwindersingh/Desktop/React_Native_code/rn-course/node_modules/react-native-image-picker/android/build/intermediates/manifests/full/debug/AndroidManifest.xml:7:5-9:41
MERGED from [:react-native-image-picker] /Users/balwindersingh/Desktop/React_Native_code/rn-course/node_modules/react-native-image-picker/android/build/intermediates/manifests/full/debug/AndroidManifest.xml:7:5-9:41
MERGED from [com.facebook.react:react-native:0.55.4] /Users/balwindersingh/.gradle/caches/transforms-1/files-1.1/react-native-0.55.4.aar/523d46b92ce78516a23fc37284fa4dfb/AndroidManifest.xml:7:5-9:41
MERGED from [com.facebook.react:react-native:0.55.4] /Users/balwindersingh/.gradle/caches/transforms-1/files-1.1/react-native-0.55.4.aar/523d46b92ce78516a23fc37284fa4dfb/AndroidManifest.xml:7:5-9:41
MERGED from [com.balysv.materialmenu:material-menu-toolbar:1.5.4] /Users/balwindersingh/.gradle/caches/transforms-1/files-1.1/material-menu-toolbar-1.5.4.aar/e01dcaffa6584532384161a220444455/AndroidManifest.xml:8:5-10:41
MERGED from [com.balysv.materialmenu:material-menu-toolbar:1.5.4] /Users/balwindersingh/.gradle/caches/transforms-1/files-1.1/material-menu-toolbar-1.5.4.aar/e01dcaffa6584532384161a220444455/AndroidManifest.xml:8:5-10:41
MERGED from [com.aurelhubert:ahbottomnavigation:2.0.6] /Users/balwindersingh/.gradle/caches/transforms-1/files-1.1/ahbottomnavigation-2.0.6.aar/177658f54693832eaa5625e0aed93748/AndroidManifest.xml:7:5-9:41
MERGED from [com.aurelhubert:ahbottomnavigation:2.0.6] /Users/balwindersingh/.gradle/caches/transforms-1/files-1.1/ahbottomnavigation-2.0.6.aar/177658f54693832eaa5625e0aed93748/AndroidManifest.xml:7:5-9:41
MERGED from [com.android.support:design:25.3.1] /Users/balwindersingh/.gradle/caches/transforms-1/files-1.1/design-25.3.1.aar/96bcce4c085bb9936858261c5945bebf/AndroidManifest.xml:21:5-23:62
MERGED from [com.android.support:design:25.3.1] /Users/balwindersingh/.gradle/caches/transforms-1/files-1.1/design-25.3.1.aar/96bcce4c085bb9936858261c5945bebf/AndroidManifest.xml:21:5-23:62
MERGED from [com.android.support:appcompat-v7:25.3.1] /Users/balwindersingh/.gradle/caches/transforms-1/files-1.1/appcompat-v7-25.3.1.aar/94851685d741ed7b45930e357cf9b9d7/AndroidManifest.xml:21:5-23:78
MERGED from [com.android.support:appcompat-v7:25.3.1] /Users/balwindersingh/.gradle/caches/transforms-1/files-1.1/appcompat-v7-25.3.1.aar/94851685d741ed7b45930e357cf9b9d7/AndroidManifest.xml:21:5-23:78
MERGED from [:react-native-maps] /Users/balwindersingh/Desktop/React_Native_code/rn-course/node_modules/react-native-maps/lib/android/build/intermediates/manifests/full/debug/AndroidManifest.xml:5:5-7:41
MERGED from [:react-native-maps] /Users/balwindersingh/Desktop/React_Native_code/rn-course/node_modules/react-native-maps/lib/android/build/intermediates/manifests/full/debug/AndroidManifest.xml:5:5-7:41
MERGED from [com.google.android.gms:play-services-maps:10.0.1] /Users/balwindersingh/.gradle/caches/transforms-1/files-1.1/play-services-maps-10.0.1.aar/e06f5f072991c02653321e2bcd9a06bd/AndroidManifest.xml:23:5-42
MERGED from [com.google.android.gms:play-services-maps:10.0.1] /Users/balwindersingh/.gradle/caches/transforms-1/files-1.1/play-services-maps-10.0.1.aar/e06f5f072991c02653321e2bcd9a06bd/AndroidManifest.xml:23:5-42
MERGED from [com.google.android.gms:play-services-base:10.0.1] /Users/balwindersingh/.gradle/caches/transforms-1/files-1.1/play-services-base-10.0.1.aar/a96078589639d53a95db88da53e515d8/AndroidManifest.xml:17:5-42
MERGED from [com.google.android.gms:play-services-base:10.0.1] /Users/balwindersingh/.gradle/caches/transforms-1/files-1.1/play-services-base-10.0.1.aar/a96078589639d53a95db88da53e515d8/AndroidManifest.xml:17:5-42
MERGED from [com.facebook.fbui.textlayoutbuilder:textlayoutbuilder:1.0.0] /Users/balwindersingh/.gradle/caches/transforms-1/files-1.1/textlayoutbuilder-1.0.0.aar/01e1975573ebdddf04baa41f38a81880/AndroidManifest.xml:14:5-16:41
MERGED from [com.facebook.fbui.textlayoutbuilder:textlayoutbuilder:1.0.0] /Users/balwindersingh/.gradle/caches/transforms-1/files-1.1/textlayoutbuilder-1.0.0.aar/01e1975573ebdddf04baa41f38a81880/AndroidManifest.xml:14:5-16:41
MERGED from [com.facebook.fresco:fresco:1.3.0] /Users/balwindersingh/.gradle/caches/transforms-1/files-1.1/fresco-1.3.0.aar/1a1518ed5bb997f08374882a23286813/AndroidManifest.xml:5:5-7:41
MERGED from [com.facebook.fresco:fresco:1.3.0] /Users/balwindersingh/.gradle/caches/transforms-1/files-1.1/fresco-1.3.0.aar/1a1518ed5bb997f08374882a23286813/AndroidManifest.xml:5:5-7:41
MERGED from [com.facebook.fresco:imagepipeline-okhttp3:1.3.0] /Users/balwindersingh/.gradle/caches/transforms-1/files-1.1/imagepipeline-okhttp3-1.3.0.aar/9840f6465f4e6b388f3cbf988b45a7c1/AndroidManifest.xml:5:5-7:41
MERGED from [com.facebook.fresco:imagepipeline-okhttp3:1.3.0] /Users/balwindersingh/.gradle/caches/transforms-1/files-1.1/imagepipeline-okhttp3-1.3.0.aar/9840f6465f4e6b388f3cbf988b45a7c1/AndroidManifest.xml:5:5-7:41
MERGED from [com.facebook.soloader:soloader:0.1.0] /Users/balwindersingh/.gradle/caches/transforms-1/files-1.1/soloader-0.1.0.aar/aaeaa138c16790cc1104719c3f0b4a78/AndroidManifest.xml:2:3-70
MERGED from [com.facebook.soloader:soloader:0.1.0] /Users/balwindersingh/.gradle/caches/transforms-1/files-1.1/soloader-0.1.0.aar/aaeaa138c16790cc1104719c3f0b4a78/AndroidManifest.xml:2:3-70
MERGED from [com.google.android.gms:play-services-tasks:10.0.1] /Users/balwindersingh/.gradle/caches/transforms-1/files-1.1/play-services-tasks-10.0.1.aar/62aac8a9ce8948d6e093c01f3adc018e/AndroidManifest.xml:3:5-42
MERGED from [com.google.android.gms:play-services-tasks:10.0.1] /Users/balwindersingh/.gradle/caches/transforms-1/files-1.1/play-services-tasks-10.0.1.aar/62aac8a9ce8948d6e093c01f3adc018e/AndroidManifest.xml:3:5-42
MERGED from [com.google.android.gms:play-services-basement:10.0.1] /Users/balwindersingh/.gradle/caches/transforms-1/files-1.1/play-services-basement-10.0.1.aar/3cd082ad5f86f64fdf89311ed5933c59/AndroidManifest.xml:17:5-42
MERGED from [com.google.android.gms:play-services-basement:10.0.1] /Users/balwindersingh/.gradle/caches/transforms-1/files-1.1/play-services-basement-10.0.1.aar/3cd082ad5f86f64fdf89311ed5933c59/AndroidManifest.xml:17:5-42
MERGED from [com.android.support:transition:25.3.1] /Users/balwindersingh/.gradle/caches/transforms-1/files-1.1/transition-25.3.1.aar/ac82d289ed7a4ed2257434129e8cd0ef/AndroidManifest.xml:20:5-44
MERGED from [com.android.support:transition:25.3.1] /Users/balwindersingh/.gradle/caches/transforms-1/files-1.1/transition-25.3.1.aar/ac82d289ed7a4ed2257434129e8cd0ef/AndroidManifest.xml:20:5-44
MERGED from [com.android.support:support-v4:25.3.1] /Users/balwindersingh/.gradle/caches/transforms-1/files-1.1/support-v4-25.3.1.aar/1dd75d1bc82b8ecc67df076594c16ea6/AndroidManifest.xml:21:5-23:54
MERGED from [com.android.support:support-v4:25.3.1] /Users/balwindersingh/.gradle/caches/transforms-1/files-1.1/support-v4-25.3.1.aar/1dd75d1bc82b8ecc67df076594c16ea6/AndroidManifest.xml:21:5-23:54
MERGED from [com.google.maps.android:android-maps-utils:0.5] /Users/balwindersingh/.gradle/caches/transforms-1/files-1.1/android-maps-utils-0.5.aar/7caa1b57abe22018540d7ea7492c0560/AndroidManifest.xml:5:5-43
MERGED from [com.google.maps.android:android-maps-utils:0.5] /Users/balwindersingh/.gradle/caches/transforms-1/files-1.1/android-maps-utils-0.5.aar/7caa1b57abe22018540d7ea7492c0560/AndroidManifest.xml:5:5-43
MERGED from [com.facebook.fresco:drawee:1.3.0] /Users/balwindersingh/.gradle/caches/transforms-1/files-1.1/drawee-1.3.0.aar/81946c5aea6708fd80b66053579e8454/AndroidManifest.xml:5:5-7:41
MERGED from [com.facebook.fresco:drawee:1.3.0] /Users/balwindersingh/.gradle/caches/transforms-1/files-1.1/drawee-1.3.0.aar/81946c5aea6708fd80b66053579e8454/AndroidManifest.xml:5:5-7:41
MERGED from [com.facebook.fresco:imagepipeline:1.3.0] /Users/balwindersingh/.gradle/caches/transforms-1/files-1.1/imagepipeline-1.3.0.aar/1c5a9f6d4f7a2363bfc5e5131ca700eb/AndroidManifest.xml:5:5-7:41
MERGED from [com.facebook.fresco:imagepipeline:1.3.0] /Users/balwindersingh/.gradle/caches/transforms-1/files-1.1/imagepipeline-1.3.0.aar/1c5a9f6d4f7a2363bfc5e5131ca700eb/AndroidManifest.xml:5:5-7:41
MERGED from [com.facebook.fresco:imagepipeline-base:1.3.0] /Users/balwindersingh/.gradle/caches/transforms-1/files-1.1/imagepipeline-base-1.3.0.aar/eac575755b6dafba9bd48359478ee21b/AndroidManifest.xml:5:5-7:41
MERGED from [com.facebook.fresco:imagepipeline-base:1.3.0] /Users/balwindersingh/.gradle/caches/transforms-1/files-1.1/imagepipeline-base-1.3.0.aar/eac575755b6dafba9bd48359478ee21b/AndroidManifest.xml:5:5-7:41
MERGED from [com.facebook.fresco:fbcore:1.3.0] /Users/balwindersingh/.gradle/caches/transforms-1/files-1.1/fbcore-1.3.0.aar/1b33b173fed59ef5b15a908a01a6da87/AndroidManifest.xml:5:5-7:41
MERGED from [com.facebook.fresco:fbcore:1.3.0] /Users/balwindersingh/.gradle/caches/transforms-1/files-1.1/fbcore-1.3.0.aar/1b33b173fed59ef5b15a908a01a6da87/AndroidManifest.xml:5:5-7:41
MERGED from [com.android.support:recyclerview-v7:25.3.1] /Users/balwindersingh/.gradle/caches/transforms-1/files-1.1/recyclerview-v7-25.3.1.aar/3dba1df03cb71944add03461ab419260/AndroidManifest.xml:20:5-43
MERGED from [com.android.support:recyclerview-v7:25.3.1] /Users/balwindersingh/.gradle/caches/transforms-1/files-1.1/recyclerview-v7-25.3.1.aar/3dba1df03cb71944add03461ab419260/AndroidManifest.xml:20:5-43
MERGED from [com.balysv.materialmenu:material-menu:1.5.4] /Users/balwindersingh/.gradle/caches/transforms-1/files-1.1/material-menu-1.5.4.aar/33697b8eecdcf90ea44127b507d32956/AndroidManifest.xml:8:5-10:41
MERGED from [com.balysv.materialmenu:material-menu:1.5.4] /Users/balwindersingh/.gradle/caches/transforms-1/files-1.1/material-menu-1.5.4.aar/33697b8eecdcf90ea44127b507d32956/AndroidManifest.xml:8:5-10:41
MERGED from [com.android.support:animated-vector-drawable:25.3.1] /Users/balwindersingh/.gradle/caches/transforms-1/files-1.1/animated-vector-drawable-25.3.1.aar/c0e41d9f85597d33c4995695487aa34a/AndroidManifest.xml:20:5-44
MERGED from [com.android.support:animated-vector-drawable:25.3.1] /Users/balwindersingh/.gradle/caches/transforms-1/files-1.1/animated-vector-drawable-25.3.1.aar/c0e41d9f85597d33c4995695487aa34a/AndroidManifest.xml:20:5-44
MERGED from [com.android.support:support-vector-drawable:25.3.1] /Users/balwindersingh/.gradle/caches/transforms-1/files-1.1/support-vector-drawable-25.3.1.aar/343ef8cb76a88f5a5b8810adc89086c6/AndroidManifest.xml:20:5-43
MERGED from [com.android.support:support-vector-drawable:25.3.1] /Users/balwindersingh/.gradle/caches/transforms-1/files-1.1/support-vector-drawable-25.3.1.aar/343ef8cb76a88f5a5b8810adc89086c6/AndroidManifest.xml:20:5-43
MERGED from [com.android.support:support-fragment:25.3.1] /Users/balwindersingh/.gradle/caches/transforms-1/files-1.1/support-fragment-25.3.1.aar/c7839729b3994a76bac3c4fe63875fe3/AndroidManifest.xml:21:5-23:60
MERGED from [com.android.support:support-fragment:25.3.1] /Users/balwindersingh/.gradle/caches/transforms-1/files-1.1/support-fragment-25.3.1.aar/c7839729b3994a76bac3c4fe63875fe3/AndroidManifest.xml:21:5-23:60
MERGED from [com.android.support:support-media-compat:25.3.1] /Users/balwindersingh/.gradle/caches/transforms-1/files-1.1/support-media-compat-25.3.1.aar/37380d5f1d000537e6adccbd00e23b6b/AndroidManifest.xml:21:5-23:63
MERGED from [com.android.support:support-media-compat:25.3.1] /Users/balwindersingh/.gradle/caches/transforms-1/files-1.1/support-media-compat-25.3.1.aar/37380d5f1d000537e6adccbd00e23b6b/AndroidManifest.xml:21:5-23:63
MERGED from [com.android.support:support-core-utils:25.3.1] /Users/balwindersingh/.gradle/caches/transforms-1/files-1.1/support-core-utils-25.3.1.aar/2b68842263cae73fc7bcd9c33fad087c/AndroidManifest.xml:21:5-23:61
MERGED from [com.android.support:support-core-utils:25.3.1] /Users/balwindersingh/.gradle/caches/transforms-1/files-1.1/support-core-utils-25.3.1.aar/2b68842263cae73fc7bcd9c33fad087c/AndroidManifest.xml:21:5-23:61
MERGED from [com.android.support:support-core-ui:25.3.1] /Users/balwindersingh/.gradle/caches/transforms-1/files-1.1/support-core-ui-25.3.1.aar/41ba186db3ce090ee3e45bbe93251aad/AndroidManifest.xml:21:5-23:58
MERGED from [com.android.support:support-core-ui:25.3.1] /Users/balwindersingh/.gradle/caches/transforms-1/files-1.1/support-core-ui-25.3.1.aar/41ba186db3ce090ee3e45bbe93251aad/AndroidManifest.xml:21:5-23:58
MERGED from [com.android.support:support-compat:25.3.1] /Users/balwindersingh/.gradle/caches/transforms-1/files-1.1/support-compat-25.3.1.aar/928cffda348b9ade96913757e70caeaa/AndroidManifest.xml:21:5-23:58
MERGED from [com.android.support:support-compat:25.3.1] /Users/balwindersingh/.gradle/caches/transforms-1/files-1.1/support-compat-25.3.1.aar/928cffda348b9ade96913757e70caeaa/AndroidManifest.xml:21:5-23:58
INJECTED from /Users/balwindersingh/Desktop/React_Native_code/rn-course/android/app/src/main/AndroidManifest.xml
INJECTED from /Users/balwindersingh/Desktop/React_Native_code/rn-course/android/app/src/main/AndroidManifest.xml
	tools:overrideLibrary
		ADDED from [com.android.support:design:25.3.1] /Users/balwindersingh/.gradle/caches/transforms-1/files-1.1/design-25.3.1.aar/96bcce4c085bb9936858261c5945bebf/AndroidManifest.xml:23:9-59
	android:targetSdkVersion
		INJECTED from /Users/balwindersingh/Desktop/React_Native_code/rn-course/android/app/src/main/AndroidManifest.xml
		ADDED from /Users/balwindersingh/Desktop/React_Native_code/rn-course/android/app/src/main/AndroidManifest.xml
		INJECTED from /Users/balwindersingh/Desktop/React_Native_code/rn-course/android/app/src/main/AndroidManifest.xml
	android:minSdkVersion
		INJECTED from /Users/balwindersingh/Desktop/React_Native_code/rn-course/android/app/src/main/AndroidManifest.xml
		ADDED from /Users/balwindersingh/Desktop/React_Native_code/rn-course/android/app/src/main/AndroidManifest.xml
		INJECTED from /Users/balwindersingh/Desktop/React_Native_code/rn-course/android/app/src/main/AndroidManifest.xml
activity#com.reactnativenavigation.controllers.NavigationActivity
ADDED from [:react-native-navigation] /Users/balwindersingh/Desktop/React_Native_code/rn-course/node_modules/react-native-navigation/android/app/build/intermediates/manifests/full/debug/AndroidManifest.xml:12:9-14:86
	android:configChanges
		ADDED from [:react-native-navigation] /Users/balwindersingh/Desktop/React_Native_code/rn-course/node_modules/react-native-navigation/android/app/build/intermediates/manifests/full/debug/AndroidManifest.xml:14:13-83
	android:name
		ADDED from [:react-native-navigation] /Users/balwindersingh/Desktop/React_Native_code/rn-course/node_modules/react-native-navigation/android/app/build/intermediates/manifests/full/debug/AndroidManifest.xml:13:13-84
provider#com.imagepicker.FileProvider
ADDED from [:react-native-image-picker] /Users/balwindersingh/Desktop/React_Native_code/rn-course/node_modules/react-native-image-picker/android/build/intermediates/manifests/full/debug/AndroidManifest.xml:12:9-20:20
	android:grantUriPermissions
		ADDED from [:react-native-image-picker] /Users/balwindersingh/Desktop/React_Native_code/rn-course/node_modules/react-native-image-picker/android/build/intermediates/manifests/full/debug/AndroidManifest.xml:16:13-47
	android:authorities
		ADDED from [:react-native-image-picker] /Users/balwindersingh/Desktop/React_Native_code/rn-course/node_modules/react-native-image-picker/android/build/intermediates/manifests/full/debug/AndroidManifest.xml:14:13-60
	android:exported
		ADDED from [:react-native-image-picker] /Users/balwindersingh/Desktop/React_Native_code/rn-course/node_modules/react-native-image-picker/android/build/intermediates/manifests/full/debug/AndroidManifest.xml:15:13-37
	android:name
		ADDED from [:react-native-image-picker] /Users/balwindersingh/Desktop/React_Native_code/rn-course/node_modules/react-native-image-picker/android/build/intermediates/manifests/full/debug/AndroidManifest.xml:13:13-56
meta-data#android.support.FILE_PROVIDER_PATHS
ADDED from [:react-native-image-picker] /Users/balwindersingh/Desktop/React_Native_code/rn-course/node_modules/react-native-image-picker/android/build/intermediates/manifests/full/debug/AndroidManifest.xml:17:13-19:58
	android:resource
		ADDED from [:react-native-image-picker] /Users/balwindersingh/Desktop/React_Native_code/rn-course/node_modules/react-native-image-picker/android/build/intermediates/manifests/full/debug/AndroidManifest.xml:19:17-55
	android:name
		ADDED from [:react-native-image-picker] /Users/balwindersingh/Desktop/React_Native_code/rn-course/node_modules/react-native-image-picker/android/build/intermediates/manifests/full/debug/AndroidManifest.xml:18:17-67
meta-data#android.support.VERSION
ADDED from [com.android.support:design:25.3.1] /Users/balwindersingh/.gradle/caches/transforms-1/files-1.1/design-25.3.1.aar/96bcce4c085bb9936858261c5945bebf/AndroidManifest.xml:25:5-27:34
MERGED from [com.android.support:appcompat-v7:25.3.1] /Users/balwindersingh/.gradle/caches/transforms-1/files-1.1/appcompat-v7-25.3.1.aar/94851685d741ed7b45930e357cf9b9d7/AndroidManifest.xml:25:5-27:34
MERGED from [com.android.support:appcompat-v7:25.3.1] /Users/balwindersingh/.gradle/caches/transforms-1/files-1.1/appcompat-v7-25.3.1.aar/94851685d741ed7b45930e357cf9b9d7/AndroidManifest.xml:25:5-27:34
MERGED from [com.android.support:transition:25.3.1] /Users/balwindersingh/.gradle/caches/transforms-1/files-1.1/transition-25.3.1.aar/ac82d289ed7a4ed2257434129e8cd0ef/AndroidManifest.xml:22:5-24:34
MERGED from [com.android.support:transition:25.3.1] /Users/balwindersingh/.gradle/caches/transforms-1/files-1.1/transition-25.3.1.aar/ac82d289ed7a4ed2257434129e8cd0ef/AndroidManifest.xml:22:5-24:34
MERGED from [com.android.support:support-v4:25.3.1] /Users/balwindersingh/.gradle/caches/transforms-1/files-1.1/support-v4-25.3.1.aar/1dd75d1bc82b8ecc67df076594c16ea6/AndroidManifest.xml:25:5-27:34
MERGED from [com.android.support:support-v4:25.3.1] /Users/balwindersingh/.gradle/caches/transforms-1/files-1.1/support-v4-25.3.1.aar/1dd75d1bc82b8ecc67df076594c16ea6/AndroidManifest.xml:25:5-27:34
MERGED from [com.android.support:recyclerview-v7:25.3.1] /Users/balwindersingh/.gradle/caches/transforms-1/files-1.1/recyclerview-v7-25.3.1.aar/3dba1df03cb71944add03461ab419260/AndroidManifest.xml:22:5-24:34
MERGED from [com.android.support:recyclerview-v7:25.3.1] /Users/balwindersingh/.gradle/caches/transforms-1/files-1.1/recyclerview-v7-25.3.1.aar/3dba1df03cb71944add03461ab419260/AndroidManifest.xml:22:5-24:34
MERGED from [com.android.support:animated-vector-drawable:25.3.1] /Users/balwindersingh/.gradle/caches/transforms-1/files-1.1/animated-vector-drawable-25.3.1.aar/c0e41d9f85597d33c4995695487aa34a/AndroidManifest.xml:22:5-24:34
MERGED from [com.android.support:animated-vector-drawable:25.3.1] /Users/balwindersingh/.gradle/caches/transforms-1/files-1.1/animated-vector-drawable-25.3.1.aar/c0e41d9f85597d33c4995695487aa34a/AndroidManifest.xml:22:5-24:34
MERGED from [com.android.support:support-vector-drawable:25.3.1] /Users/balwindersingh/.gradle/caches/transforms-1/files-1.1/support-vector-drawable-25.3.1.aar/343ef8cb76a88f5a5b8810adc89086c6/AndroidManifest.xml:22:5-24:34
MERGED from [com.android.support:support-vector-drawable:25.3.1] /Users/balwindersingh/.gradle/caches/transforms-1/files-1.1/support-vector-drawable-25.3.1.aar/343ef8cb76a88f5a5b8810adc89086c6/AndroidManifest.xml:22:5-24:34
MERGED from [com.android.support:support-fragment:25.3.1] /Users/balwindersingh/.gradle/caches/transforms-1/files-1.1/support-fragment-25.3.1.aar/c7839729b3994a76bac3c4fe63875fe3/AndroidManifest.xml:25:5-27:34
MERGED from [com.android.support:support-fragment:25.3.1] /Users/balwindersingh/.gradle/caches/transforms-1/files-1.1/support-fragment-25.3.1.aar/c7839729b3994a76bac3c4fe63875fe3/AndroidManifest.xml:25:5-27:34
MERGED from [com.android.support:support-media-compat:25.3.1] /Users/balwindersingh/.gradle/caches/transforms-1/files-1.1/support-media-compat-25.3.1.aar/37380d5f1d000537e6adccbd00e23b6b/AndroidManifest.xml:25:5-27:34
MERGED from [com.android.support:support-media-compat:25.3.1] /Users/balwindersingh/.gradle/caches/transforms-1/files-1.1/support-media-compat-25.3.1.aar/37380d5f1d000537e6adccbd00e23b6b/AndroidManifest.xml:25:5-27:34
MERGED from [com.android.support:support-core-utils:25.3.1] /Users/balwindersingh/.gradle/caches/transforms-1/files-1.1/support-core-utils-25.3.1.aar/2b68842263cae73fc7bcd9c33fad087c/AndroidManifest.xml:25:5-27:34
MERGED from [com.android.support:support-core-utils:25.3.1] /Users/balwindersingh/.gradle/caches/transforms-1/files-1.1/support-core-utils-25.3.1.aar/2b68842263cae73fc7bcd9c33fad087c/AndroidManifest.xml:25:5-27:34
MERGED from [com.android.support:support-core-ui:25.3.1] /Users/balwindersingh/.gradle/caches/transforms-1/files-1.1/support-core-ui-25.3.1.aar/41ba186db3ce090ee3e45bbe93251aad/AndroidManifest.xml:25:5-27:34
MERGED from [com.android.support:support-core-ui:25.3.1] /Users/balwindersingh/.gradle/caches/transforms-1/files-1.1/support-core-ui-25.3.1.aar/41ba186db3ce090ee3e45bbe93251aad/AndroidManifest.xml:25:5-27:34
MERGED from [com.android.support:support-compat:25.3.1] /Users/balwindersingh/.gradle/caches/transforms-1/files-1.1/support-compat-25.3.1.aar/928cffda348b9ade96913757e70caeaa/AndroidManifest.xml:25:5-27:34
MERGED from [com.android.support:support-compat:25.3.1] /Users/balwindersingh/.gradle/caches/transforms-1/files-1.1/support-compat-25.3.1.aar/928cffda348b9ade96913757e70caeaa/AndroidManifest.xml:25:5-27:34
	android:value
		ADDED from [com.android.support:design:25.3.1] /Users/balwindersingh/.gradle/caches/transforms-1/files-1.1/design-25.3.1.aar/96bcce4c085bb9936858261c5945bebf/AndroidManifest.xml:27:9-31
	android:name
		ADDED from [com.android.support:design:25.3.1] /Users/balwindersingh/.gradle/caches/transforms-1/files-1.1/design-25.3.1.aar/96bcce4c085bb9936858261c5945bebf/AndroidManifest.xml:26:9-47
uses-permission#android.permission.ACCESS_COARSE_LOCATION
ADDED from [:react-native-maps] /Users/balwindersingh/Desktop/React_Native_code/rn-course/node_modules/react-native-maps/lib/android/build/intermediates/manifests/full/debug/AndroidManifest.xml:10:5-81
	android:name
		ADDED from [:react-native-maps] /Users/balwindersingh/Desktop/React_Native_code/rn-course/node_modules/react-native-maps/lib/android/build/intermediates/manifests/full/debug/AndroidManifest.xml:10:22-78
uses-permission#android.permission.ACCESS_NETWORK_STATE
ADDED from [com.google.android.gms:play-services-maps:10.0.1] /Users/balwindersingh/.gradle/caches/transforms-1/files-1.1/play-services-maps-10.0.1.aar/e06f5f072991c02653321e2bcd9a06bd/AndroidManifest.xml:19:5-78
	android:name
		ADDED from [com.google.android.gms:play-services-maps:10.0.1] /Users/balwindersingh/.gradle/caches/transforms-1/files-1.1/play-services-maps-10.0.1.aar/e06f5f072991c02653321e2bcd9a06bd/AndroidManifest.xml:19:22-76
uses-feature#0x00020000
ADDED from [com.google.android.gms:play-services-maps:10.0.1] /Users/balwindersingh/.gradle/caches/transforms-1/files-1.1/play-services-maps-10.0.1.aar/e06f5f072991c02653321e2bcd9a06bd/AndroidManifest.xml:21:5-77
	android:glEsVersion
		ADDED from [com.google.android.gms:play-services-maps:10.0.1] /Users/balwindersingh/.gradle/caches/transforms-1/files-1.1/play-services-maps-10.0.1.aar/e06f5f072991c02653321e2bcd9a06bd/AndroidManifest.xml:21:19-51
	android:required
		ADDED from [com.google.android.gms:play-services-maps:10.0.1] /Users/balwindersingh/.gradle/caches/transforms-1/files-1.1/play-services-maps-10.0.1.aar/e06f5f072991c02653321e2bcd9a06bd/AndroidManifest.xml:21:52-75
activity#com.google.android.gms.common.api.GoogleApiActivity
ADDED from [com.google.android.gms:play-services-base:10.0.1] /Users/balwindersingh/.gradle/caches/transforms-1/files-1.1/play-services-base-10.0.1.aar/a96078589639d53a95db88da53e515d8/AndroidManifest.xml:19:9-172
	android:exported
		ADDED from [com.google.android.gms:play-services-base:10.0.1] /Users/balwindersingh/.gradle/caches/transforms-1/files-1.1/play-services-base-10.0.1.aar/a96078589639d53a95db88da53e515d8/AndroidManifest.xml:19:146-170
	android:theme
		ADDED from [com.google.android.gms:play-services-base:10.0.1] /Users/balwindersingh/.gradle/caches/transforms-1/files-1.1/play-services-base-10.0.1.aar/a96078589639d53a95db88da53e515d8/AndroidManifest.xml:19:86-145
	android:name
		ADDED from [com.google.android.gms:play-services-base:10.0.1] /Users/balwindersingh/.gradle/caches/transforms-1/files-1.1/play-services-base-10.0.1.aar/a96078589639d53a95db88da53e515d8/AndroidManifest.xml:19:19-85
uses-permission#android.permission.READ_PHONE_STATE
IMPLIED from /Users/balwindersingh/Desktop/React_Native_code/rn-course/android/app/src/main/AndroidManifest.xml:1:1-31:12 reason: org.webkit.android_jsc has a targetSdkVersion < 4
uses-permission#android.permission.READ_EXTERNAL_STORAGE
IMPLIED from /Users/balwindersingh/Desktop/React_Native_code/rn-course/android/app/src/main/AndroidManifest.xml:1:1-31:12 reason: org.webkit.android_jsc requested WRITE_EXTERNAL_STORAGE
meta-data#com.google.android.gms.version
ADDED from [com.google.android.gms:play-services-basement:10.0.1] /Users/balwindersingh/.gradle/caches/transforms-1/files-1.1/play-services-basement-10.0.1.aar/3cd082ad5f86f64fdf89311ed5933c59/AndroidManifest.xml:20:9-121
MERGED from [com.google.maps.android:android-maps-utils:0.5] /Users/balwindersingh/.gradle/caches/transforms-1/files-1.1/android-maps-utils-0.5.aar/7caa1b57abe22018540d7ea7492c0560/AndroidManifest.xml:8:9-10:69
MERGED from [com.google.maps.android:android-maps-utils:0.5] /Users/balwindersingh/.gradle/caches/transforms-1/files-1.1/android-maps-utils-0.5.aar/7caa1b57abe22018540d7ea7492c0560/AndroidManifest.xml:8:9-10:69
	android:value
		ADDED from [com.google.android.gms:play-services-basement:10.0.1] /Users/balwindersingh/.gradle/caches/transforms-1/files-1.1/play-services-basement-10.0.1.aar/3cd082ad5f86f64fdf89311ed5933c59/AndroidManifest.xml:20:66-119
	android:name
		ADDED from [com.google.android.gms:play-services-basement:10.0.1] /Users/balwindersingh/.gradle/caches/transforms-1/files-1.1/play-services-basement-10.0.1.aar/3cd082ad5f86f64fdf89311ed5933c59/AndroidManifest.xml:20:20-65
